…
dom_overzicht()
#> # A tibble: 261 x 7
#>    domeintabel domeintabelsoort wijzigingsdatum begin_geldigheid eind_geldigheid
#>    <chr>       <chr>            <date>          <date>           <date>         
#>  1 Aanduiding~ Domeintabel      2020-06-30      2011-08-12       2018-12-10     
#>  2 Aanslag_ty~ Domeintabel      2020-06-30      2011-10-20       2018-12-10     
#>  3 Aanvoereen~ Domeintabel      2020-06-30      2011-08-19       2018-12-10     
#>  4 Aanvoergeb~ Domeintabel      2020-06-30      2011-08-19       2018-12-10     
#>  5 Aanwezig_a~ Domeintabel      2020-06-30      2011-09-08       2018-12-10     
#>  6 Academisch~ Domeintabel      2020-06-30      2011-08-19       2018-12-10     
#>  7 Adellijke_~ Domeintabel      2020-06-30      2011-08-19       2018-12-10     
#>  8 Aflevering~ Domeintabel      2020-06-30      2011-10-22       2018-12-13     
#>  9 Afrasterin~ Domeintabel      2020-06-30      2011-09-10       2011-10-15     
#> 10 Afsluitbar~ Domeintabel      2020-06-30      2011-09-08       2011-10-12     
#> # ... with 251 more rows, and 2 more variables: kolommen <list>, guid <chr>
…
