Toegang tot de Aquo-domeintabellen vanuit R • aquodom
…
# Alleen domeinwaarden die nu geldig zijn
dom("MonsterType", peildatum = Sys.Date())
#> # A tibble: 7 x 6
#>      id omschrijving   begin_geldigheid eind_geldigheid guid      gerelateerd   
#>   <dbl> <chr>          <date>           <date>          <chr>     <chr>         
#> 1    10 analysemonster 2017-12-13       2100-01-01      Id-6a3e6~ Id-99092d94-d~
#> 2     8 materiaalmons~ 2015-11-18       2100-01-01      Id-f811d~ Id-2d146a3e-3~
#> 3    11 samengevoegd ~ 2017-12-13       2100-01-01      Id-81ce3~ Id-8df42796-7~
#> 4     4 toetsmonster   2015-11-18       2100-01-01      Id-0034d~ Id-ad4f1180-6~
#> 5     9 uitloogmonster 2015-11-18       2100-01-01      Id-6053f~ Id-48826f74-c~
#> 6     1 veldmonster    2015-11-18       2100-01-01      Id-74dd8~ Id-3e9918e3-4~
#> 7     7 zeefmonster    2015-11-18       2100-01-01      Id-8d483~ Id-63ac95ff-1~

dom_overzicht(peildatum = Sys.Date())
#> # A tibble: 126 x 7
#>    domeintabel domeintabelsoort wijzigingsdatum begin_geldigheid eind_geldigheid
#>    <chr>       <chr>            <date>          <date>           <date>         
#>  1 Afsluitmid~ Domeintabel      2020-11-11      2016-03-12       2100-01-01     
#>  2 Bekleding_~ Domeintabel      2020-06-30      2016-03-12       2100-01-01     
#>  3 BekledingT~ Domeintabel      2020-06-30      2016-03-12       2100-01-01     
#>  4 Bekledingl~ Domeintabel      2020-06-30      2016-03-12       2100-01-01     
#>  5 Bemonsteri~ Domeintabel      2020-11-09      2011-06-10       2100-01-01     
#>  6 Bemonsteri~ Domeintabel      2020-06-30      2011-06-11       2100-01-01     
#>  7 Bemonsteri~ Domeintabel      2020-06-30      2011-10-06       2100-01-01     
#>  8 BeschermdG~ Domeintabel      2020-11-09      2011-11-11       2100-01-01     
#>  9 Besturings~ Domeintabel      2020-11-11      2011-10-15       2100-01-01     
#> 10 Bevaarbaar~ Domeintabel      2020-06-30      2011-08-12       2100-01-01     
#> # ... with 116 more rows, and 2 more variables: kolommen <list>, guid <chr>
…
